Exploring potential explanations for eligibility drift
…
  ACS_PCT_MALE (mean (SD))                  
  ACS_PCT_FEMALE (mean (SD))                
  LAB_CR (mean (SD))                        
  LAB_HDL (mean (SD))                       
  ACS_PCT_PRIVATE_MDCR (mean (SD))          
  POS_DIST_OBSTETRICS_TRACT (mean (SD))     
  EFI_DIZ = 1 (%)                           
  EFI_CP = 1 (%)                            
  MED_CNT_CLS (mean (SD))                   
  MED_CNT_IN (mean (SD))                    
  EFI_VALV = 1 (%)                          
  SMOKER_IND = 1 (%)                        
  ACS_PCT_GOVT (mean (SD))                  

# A tibble: 35 × 5
   var                  cat                         `0`            `1`   p.value
   <chr>                <chr>                       <chr>          <chr>   <dbl>
 1 n                    ""                          605            395   NA     
 2 ACS_PCT_FEMALE       "mean(sd); med(iqr) [miss]" 50.5 (3.8);50… 51.1…  0.0198
 3 ACS_PCT_GOVT         "mean(sd); med(iqr) [miss]" 12.5 (5.8);11… 13.3…  0.0489
 4 ACS_PCT_MALE         "mean(sd); med(iqr) [miss]" 49.5 (3.8);49… 48.9…  0.0198
 5 ACS_PCT_PRIVATE_MDCR "mean(sd); med(iqr) [miss]" 2.8 (1.8);2.5… 3 (2…  0.0277
 6 ELIG_SBP             "mean(sd); med(iqr) [miss]" 151.7 (9.6);1… 149.…  0.0031
 7 HT                   "mean(sd); med(iqr) [miss]" 1.7 (0.1);1.7… 1.7 …  0     
 8 LAB_AST              "mean(sd); med(iqr) [miss]" 23 (8.3);21(1… 21.5…  0.003 
 9 LAB_CR               "mean(sd); med(iqr) [miss]" 1.1 (0.3);1(1… 1 (0…  0.0255
10 LAB_HDL              "mean(sd); med(iqr) [miss]" 55.9 (16.1);5… 58.4…  0.0281
# ℹ 25 more rows
…
